processore_esercizio_8/Analisi.vcd
$date
  Tue Dec 29 09:31:33 2020
$end
$version
  GHDL v0
$end
$timescale
  1 fs
$end
$scope module standard $end
$upscope $end
$scope module std_logic_1164 $end
$upscope $end
$scope module common_defs $end
$upscope $end
$scope module numeric_std $end
$upscope $end
$scope module processor_tb $end
$var reg 1 ! reset $end
$var reg 1 " mem_data_we $end
$var reg 32 # mem_data_in[31:0] $end
$var reg 32 $ mem_data_out[31:0] $end
$var reg 32 % mem_data_addr[31:0] $end
$var reg 8 & mem_instr_in[7:0] $end
$var reg 32 ' mem_instr_addr[31:0] $end
$var reg 1 ( clk $end
$scope module dut $end
$var reg 1 ) clk $end
$var reg 1 * reset $end
$var reg 1 + mem_data_we $end
$var reg 32 , mem_data_in[31:0] $end
$var reg 32 - mem_data_out[31:0] $end
$var reg 32 . mem_data_addr[31:0] $end
$var reg 8 / mem_instr_in[7:0] $end
$var reg 32 0 mem_instr_addr[31:0] $end
$var reg 8 1 alu_control_t[7:0] $end
$var reg 9 2 c_to_reg_control_t[8:0] $end
$var reg 9 3 reg_to_b_control_t[8:0] $end
$var reg 3 4 mem_control_t[2:0] $end
$var reg 8 5 mbr_reg_t[7:0] $end
$var reg 1 6 alu_n_flag_t $end
$var reg 1 7 alu_z_flag_t $end
$scope module control_unit $end
$var reg 1 8 clk $end
$var reg 1 9 reset $end
$var reg 8 : mbr_reg_in[7:0] $end
$var reg 1 ; alu_n_flag $end
$var reg 1 < alu_z_flag $end
$var reg 8 = alu_control[7:0] $end
$var reg 9 > c_to_reg_control[8:0] $end
$var reg 3 ? mem_control[2:0] $end
$var reg 9 @ reg_to_b_control[8:0] $end
$var reg 9 A mpc_virtual_reg[8:0] $end
$var reg 36 B mir_reg[35:0] $end
$var reg 1 C n_ff $end
$var reg 1 D z_ff $end
$var reg 36 E control_store_word[35:0] $end
$var reg 8 F ctrl_nxt_addr_no_msb[7:0] $end
$var reg 8 G jmpc_addr[7:0] $end
$var reg 1 H high_bit $end
$var reg 9 I reg_to_b_decoder_out[8:0] $end
$scope module control_store $end
$var reg 9 J address[8:0] $end
$var reg 36 K word[35:0] $end
$upscope $end
$upscope $end
$scope module datapath $end
$var reg 1 L clk $end
$var reg 1 M reset $end
$var reg 8 N alu_control[7:0] $end
$var reg 9 O c_to_reg_control[8:0] $end
$var reg 3 P mem_control[2:0] $end
$var reg 9 Q reg_to_b_control[8:0] $end
$var reg 8 R mbr_reg_out[7:0] $end
$var reg 1 S alu_n_flag $end
$var reg 1 T alu_z_flag $end
$var reg 1 U mem_data_we $end
$var reg 32 V mem_data_in[31:0] $end
$var reg 32 W mem_data_out[31:0] $end
$var reg 32 X mem_data_addr[31:0] $end
$var reg 8 Y mem_instr_in[7:0] $end
$var reg 32 Z mem_instr_addr[31:0] $end
$var reg 32 [ sp_reg[31:0] $end
$var reg 32 \ lv_reg[31:0] $end
$var reg 32 ] cpp_reg[31:0] $end
$var reg 32 ^ tos_reg[31:0] $end
$var reg 32 _ opc_reg[31:0] $end
$var reg 32 ` h_reg[31:0] $end
$var reg 32 a mar_reg[31:0] $end
$var reg 32 b mdr_reg[31:0] $end
$var reg 32 c pc_reg[31:0] $end
$var reg 8 d mbr_reg[7:0] $end
$var reg 1 e rd_ff $end
$var reg 1 f fetch_ff $end
$var reg 1 g wr_ff $end
$var reg 32 h a_bus[31:0] $end
$var reg 32 i b_bus[31:0] $end
$var reg 32 j c_bus[31:0] $end
$var reg 32 k mbr_u[31:0] $end
$var reg 32 l mbr_s[31:0] $end
$scope module alu $end
$var reg 8 m control[7:0] $end
$var reg 32 n operand_a[31:0] $end
$var reg 32 o operand_b[31:0] $end
$var reg 32 p sh_result[31:0] $end
$var reg 1 q negative_flag $end
$var reg 1 r zero_flag $end
$var reg 32 s t_operand_a[31:0] $end
$var reg 32 t t_operand_a_inv[31:0] $end
$var reg 32 u t_operand_b[31:0] $end
$var reg 1 v t_inc[0:0] $end
$var reg 32 w t_u_sum[31:0] $end
$var reg 32 x t_and[31:0] $end
$var reg 32 y t_or[31:0] $end
$var reg 32 z t_not_b[31:0] $end
$var reg 32 { t_sum[31:0] $end
$var reg 32 | t_result[31:0] $end
$upscope $end
$upscope $end
$upscope $end
$scope module dp_ar_ram $end
$var reg 1 } clk $end
$var reg 1 !" we_1 $end
$var reg 32 "" data_in_1[31:0] $end
$var reg 32 #" data_out_1[31:0] $end
$var reg 32 $" address_1[31:0] $end
$var reg 1 %" we_2 $end
$var reg 32 &" data_in_2[31:0] $end
$var reg 8 '" data_out_2[7:0] $end
$var reg 32 (" address_2[31:0] $end
$var integer 32 )" t_address_1 $end
$var integer 32 *" t_address_2 $end
$var reg 32 +" wa_address_2[31:0] $end
$var reg 32 ," t_data_out_2[31:0] $end
$comment mem is not handled $end
$upscope $end
$upscope $end
$enddefinitions $end
#0
U!
U"
b00000001000000000000000100000000 #
bUUUUUUUUUUUUUUUUUUUUUUUUUUUUUUUU $
bUUUUUUUUUUUUUUUUUUUUUUUUUUUUUUUU %
b00000000 &
bUUUUUUUUUUUUUUUUUUUUUUUUUUUUUUUU '
0(
0)
U*
U+
b00000001000000000000000100000000 ,
bUUUUUUUUUUUUUUUUUUUUUUUUUUUUUUUU -
bUUUUUUUUUUUUUUUUUUUUUUUUUUUUUUUU .
b00000000 /
bUUUUUUUUUUUUUUUUUUUUUUUUUUUUUUUU 0
bUUUUUUUU 1
bUUUUUUUUU 2
b000000000 3
bUUU 4
bUUUUUUUU 5
06
17
08
U9
bUUUUUUUU :
0;
1<
bUUUUUUUU =
bUUUUUUUUU >
bUUU ?
b000000000 @
bUUUUUUUUU A
bUUUUUUUUUUUUUUUUUUUUUUUUUUUUUUUUUUUU B
UC
UD
b000000110000000000000000000000001001 E
bUUUUUUUU F
bUUUUUUUU G
UH
b000000000 I
bUUUUUUUUU J
b000000110000000000000000000000001001 K
0L
UM
bUUUUUUUU N
bUUUUUUUUU O
bUUU P
b000000000 Q
bUUUUUUUU R
0S
1T
UU
b00000001000000000000000100000000 V
bUUUUUUUUUUUUUUUUUUUUUUUUUUUUUUUU W
bUUUUUUUUUUUUUUUUUUUUUUUUUUUUUUUU X
b00000000 Y
bUUUUUUUUUUUUUUUUUUUUUUUUUUUUUUUU Z
bUUUUUUUUUUUUUUUUUUUUUUUUUUUUUUUU [
bUUUUUUUUUUUUUUUUUUUUUUUUUUUUUUUU \
bUUUUUUUUUUUUUUUUUUUUUUUUUUUUUUUU ]
bUUUUUUUUUUUUUUUUUUUUUUUUUUUUUUUU ^
bUUUUUUUUUUUUUUUUUUUUUUUUUUUUUUUU _
bUUUUUUUUUUUUUUUUUUUUUUUUUUUUUUUU `
bUUUUUUUUUUUUUUUUUUUUUUUUUUUUUUUU a
bUUUUUUUUUUUUUUUUUUUUUUUUUUUUUUUU b
bUUUUUUUUUUUUUUUUUUUUUUUUUUUUUUUU c
bUUUUUUUU d
Ue
Uf
Ug
bUUUUUUUUUUUUUUUUUUUUUUUUUUUUUUUU h
b00000000000000000000000000000000 i
b00000000000000000000000000000000 j
b000000000000000000000000UUUUUUUU k
bUUUUUUUUUUUUUUUUUUUUUUUUUUUUUUUU l
bUUUUUUUU m
bUUUUUUUUUUUUUUUUUUUUUUUUUUUUUUUU n
b00000000000000000000000000000000 o
b00000000000000000000000000000000 p
0q
1r
b00000000000000000000000000000000 s
b00000000000000000000000000000000 t
b00000000000000000000000000000000 u
bU v
bXXXXXXXXXXXXXXXXXXXXXXXXXXXXXXXX w
b00000000000000000000000000000000 x
b00000000000000000000000000000000 y
b00000000000000000000000000000000 z
b00000000000000000000000000000000 {
b00000000000000000000000000000000 |
0}
U!"
bUUUUUUUUUUUUUUUUUUUUUUUUUUUUUUUU ""
b00000001000000000000000100000000 #"
bUUUUUUUUUUUUUUUUUUUUUUUUUUUUUUUU $"
0%"
b00000000000000000000000000000000 &"
b00000000 '"
bUUUUUUUUUUUUUUUUUUUUUUUUUUUUUUUU ("
b0 )"
b0 *"
b00UUUUUUUUUUUUUUUUUUUUUUUUUUUUUU +"
b00000001000000000000000100000000 ,"
#5000000
1(
1)
b00000000 1
b000000000 2
b000 4
18
b00000000 =
b000000000 >
b000 ?
b000000110 A
b000000110000000000000000000000001001 B
0C
1D
b000000000100001101010000001000010001 E
b00000110 F
b00000110 G
0H
b000000110 J
b000000000100001101010000001000010001 K
1L
b00000000 N
b000000000 O
b000 P
b00000000 m
b0 v
b00000000000000000000000000000000 w
1}
#7000000
1!
1*
19
1M
#10000000
0(
0)
08
0L
0}
#15000000
0"
b00000000000000000000000000000000 $
b00000000000000000000000000000000 %
b00000000000000000000000000000000 '
1(
1)
0+
b00000000000000000000000000000000 -
b00000000000000000000000000000000 .
b00000000000000000000000000000000 0
b00000000 5
18
b00000000 :
b000000001 A
b000000001000000000000000000000001001 B
0D
b010111100000000000000000000000001001 E
b00000001 F
b00000001 G
b000000001 J
b010111100000000000000000000000001001 K
1L
b00000000 R
0U
b00000000000000000000000000000000 W
b00000000000000000000000000000000 X
b00000000000000000000000000000000 Z
b00000000000000000000000100000001 [
b00000000000000000000000100000000 \
b00000000000000000000000010000000 ]
b00000000000000000000000000000000 ^
b00000000000000000000000000000000 _
b00000000000000000000000000000000 `
b00000000000000000000000000000000 a
b00000000000000000000000000000000 b
b00000000000000000000000000000000 c
b00000000 d
0e
0f
0g
b00000000000000000000000000000000 h
b00000000000000000000000000000000 k
b00000000000000000000000000000000 l
b00000000000000000000000000000000 n
1}
0!"
b00000000000000000000000000000000 ""
b00000000000000000000000000000000 $"
b00000000000000000000000000000000 ("
b00000000000000000000000000000000 +"
#17000000
0!
0*
09
0M
#20000000
0(
0)
08
0L
0}
#25000000
1(
1)
18
b010111100 A
b010111100000000000000000000000001001 B
1D
b010111101000001111000000000010100110 E
b10111100 F
b10111100 G
b010111100 J
b010111101000001111000000000010100110 K
1L
1}
#30000000
0(
0)
08
0L
0}
#35000000
1(
1)
b00111100 1
b000000001 2
b001000000 3
b010 4
07
18
0<
b00111100 =
b000000001 >
b010 ?
b001000000 @
b010111101 A
b010111101000001111000000000010100110 B
b010111110000001101010100000000000001 E
b10111101 F
b10111101 G
b001000000 I
b010111101 J
b010111110000001101010100000000000001 K
1L
b00111100 N
b000000001 O
b010 P
b001000000 Q
0T
b00000000000000000000000010000000 i
b00000000000000000000000010000000 j
b00111100 m
b00000000000000000000000010000000 o
b00000000000000000000000010000000 p
0r
b00000000000000000000000010000000 u
b00000000000000000000000010000000 w
b00000000000000000000000010000000 {
b00000000000000000000000010000000 |
1}
#40000000
0(
0)
08
0L
0}
#45000000
b00000000000000000000000000000000 #
b00000000000000000000000010000000 %
1(
1)
b00000000000000000000000000000000 ,
b00000000000000000000000010000000 .
b00110101 1
b010000000 2
b000000010 3
b000 4
18
b00110101 =
b010000000 >
b000 ?
b000000010 @
b010111110 A
b010111110000001101010100000000000001 B
0D
b010111111000000101000000001000010000 E
b10111110 F
b10111110 G
b000000010 I
b010111110 J
b010111111000000101000000001000010000 K
1L
b00110101 N
b010000000 O
b000 P
b000000010 Q
b00000000000000000000000000000000 V
b00000000000000000000000010000000 X
b00000000000000000000000010000000 a
1e
b00000000000000000000000000000000 i
b00000000000000000000000000000001 j
b00110101 m
b00000000000000000000000000000000 o
b00000000000000000000000000000001 p
b00000000000000000000000000000000 u
b1 v
b00000000000000000000000000000001 w
b00000000000000000000000000000001 {
b00000000000000000000000000000001 |
1}
b00000000000000000000000000000000 #"
b00000000000000000000000010000000 $"
b10000000 )"
#50000000
0(
0)
08
0L
0}
#55000000
1(
1)
b00010100 1
b000000100 2
b000000001 3
b001 4
17
18
1<
b00010100 =
b000000100 >
b001 ?
b000000001 @
b010111111 A
b010111111000000101000000001000010000 B
b011000000000001101010000001000010001 E
b10111111 F
b10111111 G
b000000001 I
b010111111 J
b011000000000001101010000001000010001 K
1L
b00010100 N
b000000100 O
b001 P
b000000001 Q
1T
b00000000000000000000000000000001 _
0e
b00000000000000000000000000000000 j
b00010100 m
b00000000000000000000000000000000 p
1r
b0 v
b00000000000000000000000000000000 w
b00000000000000000000000000000000 {
b00000000000000000000000000000000 |
1}
#60000000
0(
0)
08
0L
0}
#65000000
1(
1)
b00110101 1
b000000010 3
07
18
0<
b00110101 =
b000000010 @
b011000000 A
b011000000000001101010000001000010001 B
1D
b011000001000100101001000000000000011 E
b11000000 F
b11000000 G
b000000010 I
b011000000 J
b011000001000100101001000000000000011 K
1L
b00110101 N
b000000010 Q
0T
1f
b00000000000000000000000000000001 j
b00110101 m
b00000000000000000000000000000001 p
0r
b1 v
b00000000000000000000000000000001 w
b00000000000000000000000000000001 {
b00000000000000000000000000000001 |
1}
#70000000
0(
0)
08
0L
0}
#75000000
b00000001 &
b00000000000000000000000000000001 '
1(
1)
b00000001 /
b00000000000000000000000000000001 0
b10010100 1
b100000000 2
b000001000 3
b000 4
17
18
1<
b10010100 =
b100000000 >
b000 ?
b000001000 @
b011000001 A
b011000001000100101001000000000000011 B
0D
b011000010000000111001000000000000011 E
b11000001 F
b11000001 G
b000001000 I
b011000001 J
b011000010000000111001000000000000011 K
1L
b10010100 N
b100000000 O
b000 P
b000001000 Q
1T
b00000001 Y
b00000000000000000000000000000001 Z
b00000000000000000000000000000001 c
b00000000000000000000000000000000 i
b00000000000000000000000000000000 j
b10010100 m
b00000000000000000000000000000000 o
b00000000000000000000000000000000 p
1r
b00000000000000000000000000000000 u
b0 v
b00000000000000000000000000000000 w
b00000000000000000000000000000000 y
b00000000000000000000000000000000 {
b00000000000000000000000000000000 |
1}
b00000001 '"
b00000000000000000000000000000001 ("
#80000000
0(
0)
08
0L
0}
#85000000
1(
1)
b00011100 1
b00000001 5
07
18
b00000001 :
0<
b00011100 =
b011000010 A
b011000010000000111001000000000000011 B
1D
b011000011000001101010000001000010001 E
b11000010 F
b11000010 G
b011000010 J
b011000011000001101010000001000010001 K
1L
b00011100 N
b00000001 R
0T
b00000001 d
0f
b00000000000000000000000000000001 i
b00000000000000000000000000000001 j
b00000000000000000000000000000001 k
b00000000000000000000000000000001 l
b00011100 m
b00000000000000000000000000000001 o
b00000000000000000000000000000001 p
0r
b00000000000000000000000000000001 u
b00000000000000000000000000000001 w
b00000000000000000000000000000001 y
b00000000000000000000000000000001 |
1}
#90000000
0(
0)
08
0L
0}
#95000000
1(
1)
b00110101 1
b000000100 2
b000000010 3
b001 4
07
18
0<
b00110101 =
b000000100 >
b001 ?
b000000010 @
b011000011 A
b011000011000001101010000001000010001 B
0D
b011000100000001111110010000000000100 E
b11000011 F
b11000011 G
b000000010 I
b011000011 J
b011000100000001111110010000000000100 K
1L
b00110101 N
b000000100 O
b001 P
b000000010 Q
0T
b00000000000000000000000000000001 `
b00000000000000000000000000000001 h
b00000000000000000000000000000010 j
b00110101 m
b00000000000000000000000000000001 n
b00000000000000000000000000000010 p
0r
b1 v
b00000000000000000000000000000010 w
b00000000000000000000000000000000 y
b00000000000000000000000000000010 {
b00000000000000000000000000000010 |
1}
#100000000
0(
0)
08
0L
0}
#105000000
b00000000 &
b00000000000000000000000000000010 '
1(
1)
b00000000 /
b00000000000000000000000000000010 0
b00111111 1
b001000000 2
b000010000 3
b000 4
18
b00111111 =
b001000000 >
b000 ?
b000010000 @
b011000100 A
b011000100000001111110010000000000100 B
b011000101000001101010010000010000111 E
b11000100 F
b11000100 G
b000010000 I
b011000100 J
b011000101000001101010010000010000111 K
1L
b00111111 N
b001000000 O
b000 P
b000010000 Q
b00000000 Y
b00000000000000000000000000000010 Z
b00000000000000000000000000000010 c
1f
b00000000000000000000000100000001 i
b00000000000000000000000100000000 j
b00111111 m
b00000000000000000000000100000001 o
b00000000000000000000000100000000 p
b00000000000000000000000000000001 s
b11111111111111111111111111111110 t
b00000000000000000000000100000001 u
b00000000000000000000000100000000 w
b00000000000000000000000100000000 {
b00000000000000000000000100000000 |
1}
b00000000 '"
b00000000000000000000000000000010 ("
#110000000
0(
0)
08
0L
0}
#115000000
1(
1)
b00110101 1
b001000001 2
b010000000 3
b00000000 5
18
b00000000 :
b00110101 =
b001000001 >
b010000000 @
b011000101 A
b011000101000001101010010000010000111 B
b011000110000001101010000001000010001 E
b11000101 F
b11000101 G
b010000000 I
b011000101 J
b011000110000001101010000001000010001 K
1L
b00110101 N
b001000001 O
b010000000 Q
b00000000 R
b00000000000000000000000100000000 ^
b00000000 d
0f
b00000000000000000000000100000000 i
b00000000000000000000000100000001 j
b00000000000000000000000000000000 k
b00000000000000000000000000000000 l
b00110101 m
b00000000000000000000000100000000 o
b00000000000000000000000100000001 p
b00000000000000000000000000000000 s
b00000000000000000000000000000000 t
b00000000000000000000000100000000 u
b00000000000000000000000100000001 w
b00000000000000000000000100000001 {
b00000000000000000000000100000001 |
1}
#120000000
0(
0)
08
0L
0}
#125000000
b00000000000000000000000100000001 %
1(
1)
b00000000000000000000000100000001 .
b000000100 2
b000000010 3
b001 4
18
b000000100 >
b001 ?
b000000010 @
b011000110 A
b011000110000001101010000001000010001 B
b011000111000100101001000000000000011 E
b11000110 F
b11000110 G
b000000010 I
b011000110 J
b011000111000100101001000000000000011 K
1L
b000000100 O
b001 P
b000000010 Q
b00000000000000000000000100000001 X
b00000000000000000000000100000001 ^
b00000000000000000000000100000001 a
b00000000000000000000000000000010 i
b00000000000000000000000000000011 j
b00000000000000000000000000000010 o
b00000000000000000000000000000011 p
b00000000000000000000000000000010 u
b00000000000000000000000000000011 w
b00000000000000000000000000000011 {
b00000000000000000000000000000011 |
1}
b00000000000000000000000100000001 $"
b100000001 )"
#130000000
0(
0)
08
0L
0}
#135000000
b00000001 &
b00000000000000000000000000000011 '
1(
1)
b00000001 /
b00000000000000000000000000000011 0
b10010100 1
b100000000 2
b000001000 3
b000 4
17
18
1<
b10010100 =
b100000000 >
b000 ?
b000001000 @
b011000111 A
b011000111000100101001000000000000011 B
b011001000000000111001000000000000011 E
b11000111 F
b11000111 G
b000001000 I
b011000111 J
b011001000000000111001000000000000011 K
1L
b10010100 N
b100000000 O
b000 P
b000001000 Q
1T
b00000001 Y
b00000000000000000000000000000011 Z
b00000000000000000000000000000011 c
1f
b00000000000000000000000000000000 i
b00000000000000000000000000000000 j
b10010100 m
b00000000000000000000000000000000 o
b00000000000000000000000000000000 p
1r
b00000000000000000000000000000000 u
b0 v
b00000000000000000000000000000000 w
b00000000000000000000000000000000 y
b00000000000000000000000000000000 {
b00000000000000000000000000000000 |
1}
b00000001 '"
b00000000000000000000000000000011 ("
#140000000
0(
0)
08
0L
0}
#145000000
1(
1)
b00011100 1
b00000001 5
07
18
b00000001 :
0<
b00011100 =
b011001000 A
b011001000000000111001000000000000011 B
1D
b011001001000001111010000000101000100 E
b11001000 F
b11001000 G
b011001000 J
b011001001000001111010000000101000100 K
1L
b00011100 N
b00000001 R
0T
b00000000000000000000000000000000 `
b00000001 d
0f
b00000000000000000000000000000000 h
b00000000000000000000000000000001 i
b00000000000000000000000000000001 j
b00000000000000000000000000000001 k
b00000000000000000000000000000001 l
b00011100 m
b00000000000000000000000000000000 n
b00000000000000000000000000000001 o
b00000000000000000000000000000001 p
0r
b00000000000000000000000000000001 u
b00000000000000000000000000000001 w
b00000000000000000000000000000001 y
b00000000000000000000000000000001 |
1}
#150000000
0(
0)
08
0L
0}
#155000000
1(
1)
b00111101 1
b000000010 2
b000010000 3
b100 4
07
18
0<
b00111101 =
b000000010 >
b100 ?
b000010000 @
b011001001 A
b011001001000001111010000000101000100 B
0D
b011001010000000101000000010010000000 E
b11001001 F
b11001001 G
b000010000 I
b011001001 J
b011001010000000101000000010010000000 K
1L
b00111101 N
b000000010 O
b100 P
b000010000 Q
0T
b00000000000000000000000000000001 `
b00000000000000000000000000000001 h
b00000000000000000000000100000001 i
b00000000000000000000000100000011 j
b00111101 m
b00000000000000000000000000000001 n
b00000000000000000000000100000001 o
b00000000000000000000000100000011 p
0r
b00000000000000000000000000000001 s
b00000000000000000000000000000001 t
b00000000000000000000000100000001 u
b1 v
b00000000000000000000000100000011 w
b00000000000000000000000000000000 y
b00000000000000000000000100000011 {
b00000000000000000000000100000011 |
1}
#160000000
0(
0)
08
0L
0}
#165000000
1"
b00000000000000000000000100000011 $
1(
1)
1+
b00000000000000000000000100000011 -
b00010100 1
b000001001 2
b000000001 3
b000 4
07
18
0<
b00010100 =
b000001001 >
b000 ?
b000000001 @
b011001010 A
b011001010000000101000000010010000000 B
b011001011000000101000000000101001000 E
b11001010 F
b11001010 G
b000000001 I
b011001010 J
b011001011000000101000000000101001000 K
1L
b00010100 N
b000001001 O
b000 P
b000000001 Q
0T
1U
b00000000000000000000000100000011 W
b00000000000000000000000100000011 b
1g
b00000000000000000000000100000011 i
b00000000000000000000000100000011 j
b00010100 m
b00000000000000000000000100000011 o
b00000000000000000000000100000011 p
0r
b00000000000000000000000000000000 s
b00000000000000000000000000000000 t
b00000000000000000000000100000011 u
b0 v
b00000000000000000000000100000011 w
b00000000000000000000000100000011 y
b00000000000000000000000000000000 {
b00000000000000000000000100000011 |
1}
1!"
b00000000000000000000000100000011 ""
#170000000
0(
0)
08
0L
0}
#175000000
0"
b00000000000000000000000000000000 #
b00000000000000000000000100000011 %
1(
1)
0+
b00000000000000000000000000000000 ,
b00000000000000000000000100000011 .
b000000010 2
b100000000 3
b100 4
18
b000000010 >
b100 ?
b100000000 @
b011001011 A
b011001011000000101000000000101001000 B
b011001100000001101010000010010000100 E
b11001011 F
b11001011 G
b100000000 I
b011001011 J
b011001100000001101010000010010000100 K
1L
b000000010 O
b100 P
b100000000 Q
0U
b00000000000000000000000000000000 V
b00000000000000000000000100000011 X
b00000000000000000000000100000011 [
b00000000000000000000000100000011 a
0g
b00000000000000000000000000000001 i
b00000000000000000000000000000001 j
b00000000000000000000000000000001 o
b00000000000000000000000000000001 p
b00000000000000000000000000000001 u
b00000000000000000000000000000001 w
b00000000000000000000000000000001 y
b00000000000000000000000000000001 |
1}
0!"
b00000000000000000000000000000000 #"
b00000000000000000000000100000011 $"
b100000011 )"
#180000000
0(
0)
08
0L
0}
#185000000
1"
b00000000000000000000000000000001 $
1(
1)
1+
b00000000000000000000000000000001 -
b00110101 1
b000001001 2
b000010000 3
b000 4
07
18
0<
b00110101 =
b000001001 >
b000 ?
b000010000 @
b011001100 A
b011001100000001101010000010010000100 B
b011001101000000101000000000101000101 E
b11001100 F
b11001100 G
b000010000 I
b011001100 J
b011001101000000101000000000101000101 K
1L
b00110101 N
b000001001 O
b000 P
b000010000 Q
0T
1U
b00000000000000000000000000000001 W
b00000000000000000000000000000001 b
1g
b00000000000000000000000100000011 i
b00000000000000000000000100000100 j
b00110101 m
b00000000000000000000000100000011 o
b00000000000000000000000100000100 p
0r
b00000000000000000000000100000011 u
b1 v
b00000000000000000000000100000100 w
b00000000000000000000000000000000 y
b00000000000000000000000100000100 {
b00000000000000000000000100000100 |
1}
1!"
b00000000000000000000000000000001 ""
#190000000
0(
0)
08
0L
0}
#195000000
0"
b00000000000000000000000000000000 #
b00000000000000000000000100000100 %
1(
1)
0+
b00000000000000000000000000000000 ,
b00000000000000000000000100000100 .
b00010100 1
b000000010 2
b000100000 3
b100 4
07
18
0<
b00010100 =
b000000010 >
b100 ?
b000100000 @
b011001101 A
b011001101000000101000000000101000101 B
b011001110000001101010000001000010001 E
b11001101 F
b11001101 G
b000100000 I
b011001101 J
b011001110000001101010000001000010001 K
1L
b00010100 N
b000000010 O
b100 P
b000100000 Q
0T
0U
b00000000000000000000000000000000 V
b00000000000000000000000100000100 X
b00000000000000000000000100000100 [
b00000000000000000000000100000100 a
0g
b00000000000000000000000100000000 i
b00000000000000000000000100000000 j
b00010100 m
b00000000000000000000000100000000 o
b00000000000000000000000100000000 p
0r
b00000000000000000000000100000000 u
b0 v
b00000000000000000000000100000000 w
b00000000000000000000000100000000 y
b00000000000000000000000000000000 {
b00000000000000000000000100000000 |
1}
0!"
b00000000000000000000000000000000 #"
b00000000000000000000000100000100 $"
b100000100 )"
#200000000
0(
0)
08
0L
0}
#205000000
1"
b00000000000000000000000100000000 $
1(
1)
1+
b00000000000000000000000100000000 -
b00110101 1
b000000100 2
b000000010 3
b001 4
07
18
0<
b00110101 =
b000000100 >
b001 ?
b000000010 @
b011001110 A
b011001110000001101010000001000010001 B
b000000110000000101000000100000000111 E
b11001110 F
b11001110 G
b000000010 I
b011001110 J
b000000110000000101000000100000000111 K
1L
b00110101 N
b000000100 O
b001 P
b000000010 Q
0T
1U
b00000000000000000000000100000000 W
b00000000000000000000000100000000 b
1g
b00000000000000000000000000000011 i
b00000000000000000000000000000100 j
b00110101 m
b00000000000000000000000000000011 o
b00000000000000000000000000000100 p
0r
b00000000000000000000000000000011 u
b1 v
b00000000000000000000000000000100 w
b00000000000000000000000000000000 y
b00000000000000000000000000000100 {
b00000000000000000000000000000100 |
1}
1!"
b00000000000000000000000100000000 ""
#210000000
0(
0)
08
0L
0}
#215000000
0"
b00000000000000000000000100000000 #
b00010000 &
b00000000000000000000000000000100 '
1(
1)
0+
b00000000000000000000000100000000 ,
b00010000 /
b00000000000000000000000000000100 0
b00010100 1
b000010000 2
b010000000 3
b000 4
07
18
0<
b00010100 =
b000010000 >
b000 ?
b010000000 @
b000000110 A
b000000110000000101000000100000000111 B
b000000000100001101010000001000010001 E
b00000110 F
b00000110 G
b010000000 I
b000000110 J
b000000000100001101010000001000010001 K
1L
b00010100 N
b000010000 O
b000 P
b010000000 Q
0T
0U
b00000000000000000000000100000000 V
b00010000 Y
b00000000000000000000000000000100 Z
b00000000000000000000000000000100 c
1f
0g
b00000000000000000000000100000001 i
b00000000000000000000000100000001 j
b00010100 m
b00000000000000000000000100000001 o
b00000000000000000000000100000001 p
0r
b00000000000000000000000100000001 u
b0 v
b00000000000000000000000100000001 w
b00000000000000000000000100000001 y
b00000000000000000000000000000000 {
b00000000000000000000000100000001 |
1}
0!"
b00000000000000000000000100000000 #"
b00010000 '"
b00000000000000000000000000000100 ("
b1 *"
b00000000000000000000000000000001 +"
b00001110000100000000101000010000 ,"
#220000000
0(
0)
08
0L
0}
#225000000
1(
1)
b00110101 1
b000000100 2
b000000010 3
b001 4
b00010000 5
07
18
b00010000 :
0<
b00110101 =
b000000100 >
b001 ?
b000000010 @
b000010000 A
b000000000100001101010000001000010001 B
b000010001000001101010000010010000100 E
b00000000 F
b00010000 G
b000000010 I
b000010000 J
b000010001000001101010000010010000100 K
1L
b00110101 N
b000000100 O
b001 P
b000000010 Q
b00010000 R
0T
b00000000000000000000000100000001 \
b00010000 d
0f
b00000000000000000000000000000100 i
b00000000000000000000000000000101 j
b00000000000000000000000000010000 k
b00000000000000000000000000010000 l
b00110101 m
b00000000000000000000000000000100 o
b00000000000000000000000000000101 p
0r
b00000000000000000000000000000100 u
b1 v
b00000000000000000000000000000101 w
b00000000000000000000000000000000 y
b00000000000000000000000000000101 {
b00000000000000000000000000000101 |
1}
#230000000
0(
0)
08
0L
0}
#235000000
b00001010 &
b00000000000000000000000000000101 '
1(
1)
b00001010 /
b00000000000000000000000000000101 0
b000001001 2
b000010000 3
b000 4
18
b000001001 >
b000 ?
b000010000 @
b000010001 A
b000010001000001101010000010010000100 B
b000010010000001101010000001000010001 E
b00010001 F
b00010001 G
b000010000 I
b000010001 J
b000010010000001101010000001000010001 K
1L
b000001001 O
b000 P
b000010000 Q
b00001010 Y
b00000000000000000000000000000101 Z
b00000000000000000000000000000101 c
1f
b00000000000000000000000100000100 i
b00000000000000000000000100000101 j
b00000000000000000000000100000100 o
b00000000000000000000000100000101 p
b00000000000000000000000100000100 u
b00000000000000000000000100000101 w
b00000000000000000000000100000101 {
b00000000000000000000000100000101 |
1}
b00001010 '"
b00000000000000000000000000000101 ("
#240000000
0(
0)
08
0L
0}
#245000000
b00000000000000000000000000000000 #
b00000000000000000000000100000101 %
1(
1)
b00000000000000000000000000000000 ,
b00000000000000000000000100000101 .
b000000100 2
b000000010 3
b001 4
b00001010 5
18
b00001010 :
b000000100 >
b001 ?
b000000010 @
b000010010 A
b000010010000001101010000001000010001 B
b000000110000000101000010000101000010 E
b00010010 F
b00010010 G
b000000010 I
b000010010 J
b000000110000000101000010000101000010 K
1L
b000000100 O
b001 P
b000000010 Q
b00001010 R
b00000000000000000000000000000000 V
b00000000000000000000000100000101 X
b00000000000000000000000100000101 [
b00000000000000000000000100000101 a
b00001010 d
0f
b00000000000000000000000000000101 i
b00000000000000000000000000000110 j
b00000000000000000000000000001010 k
b00000000000000000000000000001010 l
b00000000000000000000000000000101 o
b00000000000000000000000000000110 p
b00000000000000000000000000000101 u
b00000000000000000000000000000110 w
b00000000000000000000000000000110 {
b00000000000000000000000000000110 |
1}
b00000000000000000000000000000000 #"
b00000000000000000000000100000101 $"
b100000101 )"
#250000000
0(
0)
08
0L
0}
#255000000
b00010000 &
b00000000000000000000000000000110 '
1(
1)
b00010000 /
b00000000000000000000000000000110 0
b00010100 1
b001000010 2
b000000100 3
b100 4
07
18
0<
b00010100 =
b001000010 >
b100 ?
b000000100 @
b000000110 A
b000000110000000101000010000101000010 B
b000000000100001101010000001000010001 E
b00000110 F
b00000110 G
b000000100 I
b000000110 J
b000000000100001101010000001000010001 K
1L
b00010100 N
b001000010 O
b100 P
b000000100 Q
0T
b00010000 Y
b00000000000000000000000000000110 Z
b00000000000000000000000000000110 c
1f
b00000000000000000000000000001010 i
b00000000000000000000000000001010 j
b00010100 m
b00000000000000000000000000001010 o
b00000000000000000000000000001010 p
0r
b00000000000000000000000000001010 u
b0 v
b00000000000000000000000000001010 w
b00000000000000000000000000001010 y
b00000000000000000000000000000000 {
b00000000000000000000000000001010 |
1}
b00010000 '"
b00000000000000000000000000000110 ("
#260000000
0(
0)
08
0L
0}
